…
## * head <||> result *
## # A tibble: 6 x 8
##    year month   day  hour origin  dest tailnum carrier
##   <int> <int> <int> <dbl>  <chr> <chr>   <chr>   <chr>
## 1  2013     1     1     5    EWR   IAH  N14228      UA
## 2  2013     1     1     5    LGA   IAH  N24211      UA
## 3  2013     1     1     5    JFK   MIA  N619AA      AA
## 4  2013     1     1     5    JFK   BQN  N804JB      B6
## 5  2013     1     1     6    LGA   ATL  N668DN      DL
## 6  2013     1     1     5    EWR   ORD  N39463      UA
## 
## ntbt(data = ., fti = select, flights2, -origin, -dest)
## 
## * print <||> result *
## # A tibble: 336,776 x 6
##     year month   day  hour tailnum carrier
##    <int> <int> <int> <dbl>   <chr>   <chr>
## 1   2013     1     1     5  N14228      UA
## 2   2013     1     1     5  N24211      UA
## 3   2013     1     1     5  N619AA      AA
## 4   2013     1     1     5  N804JB      B6
## 5   2013     1     1     6  N668DN      DL
## 6   2013     1     1     5  N39463      UA
## 7   2013     1     1     6  N516JB      B6
## 8   2013     1     1     6  N829AS      EV
## 9   2013     1     1     6  N593JB      B6
## 10  2013     1     1     6  N3ALAA      AA
## # ... with 336,766 more rows
## 
## ntbt(data = ., fti = left_join, flights3, airlinesIB, by = "carrier")
## 
## * print <||> result *
## # A tibble: 336,776 x 7
##     year month   day  hour tailnum carrier                     name
##    <int> <int> <int> <dbl>   <chr>   <chr>                    <chr>
## 1   2013     1     1     5  N14228      UA    United Air Lines Inc.
## 2   2013     1     1     5  N24211      UA    United Air Lines Inc.
## 3   2013     1     1     5  N619AA      AA   American Airlines Inc.
## 4   2013     1     1     5  N804JB      B6          JetBlue Airways
## 5   2013     1     1     6  N668DN      DL     Delta Air Lines Inc.
## 6   2013     1     1     5  N39463      UA    United Air Lines Inc.
## 7   2013     1     1     6  N516JB      B6          JetBlue Airways
## 8   2013     1     1     6  N829AS      EV ExpressJet Airlines Inc.
## 9   2013     1     1     6  N593JB      B6          JetBlue Airways
## 10  2013     1     1     6  N3ALAA      AA   American Airlines Inc.
## # ... with 336,766 more rows
## 
## ntbt(data = ., fti = left_join, flights2, weatherIB)

## Joining, by = c("year", "month", "day", "hour", "origin")

## 
## * print <||> result *
## # A tibble: 336,776 x 18
##     year month   day  hour origin  dest tailnum carrier  temp  dewp humid
##    <dbl> <dbl> <int> <dbl>  <chr> <chr>   <chr>   <chr> <dbl> <dbl> <dbl>
## 1   2013     1     1     5    EWR   IAH  N14228      UA    NA    NA    NA
## 2   2013     1     1     5    LGA   IAH  N24211      UA    NA    NA    NA
## 3   2013     1     1     5    JFK   MIA  N619AA      AA    NA    NA    NA
## 4   2013     1     1     5    JFK   BQN  N804JB      B6    NA    NA    NA
## 5   2013     1     1     6    LGA   ATL  N668DN      DL 39.92 26.06 57.33
## 6   2013     1     1     5    EWR   ORD  N39463      UA    NA    NA    NA
## 7   2013     1     1     6    EWR   FLL  N516JB      B6 39.02 26.06 59.37
## 8   2013     1     1     6    LGA   IAD  N829AS      EV 39.92 26.06 57.33
## 9   2013     1     1     6    JFK   MCO  N593JB      B6 39.02 26.06 59.37
## 10  2013     1     1     6    LGA   ORD  N3ALAA      AA 39.92 26.06 57.33
## # ... with 336,766 more rows, and 7 more variables: wind_dir <dbl>,
## #   wind_speed <dbl>, wind_gust <dbl>, precip <dbl>, pressure <dbl>,
## #   visib <dbl>, time_hour <time>
## 
## ntbt(data = ., fti = left_join, flights2, planesIB, by = "tailnum")
## 
## * print <||> result *
## # A tibble: 336,776 x 16
##    year.x month   day  hour origin  dest tailnum carrier year.y
##     <int> <int> <int> <dbl>  <chr> <chr>   <chr>   <chr>  <int>
## 1    2013     1     1     5    EWR   IAH  N14228      UA   1999
## 2    2013     1     1     5    LGA   IAH  N24211      UA   1998
## 3    2013     1     1     5    JFK   MIA  N619AA      AA   1990
## 4    2013     1     1     5    JFK   BQN  N804JB      B6   2012
## 5    2013     1     1     6    LGA   ATL  N668DN      DL   1991
## 6    2013     1     1     5    EWR   ORD  N39463      UA   2012
## 7    2013     1     1     6    EWR   FLL  N516JB      B6   2000
## 8    2013     1     1     6    LGA   IAD  N829AS      EV   1998
## 9    2013     1     1     6    JFK   MCO  N593JB      B6   2004
## 10   2013     1     1     6    LGA   ORD  N3ALAA      AA     NA
## # ... with 336,766 more rows, and 7 more variables: type <chr>,
## #   manufacturer <chr>, model <chr>, engines <int>, seats <int>,
## #   speed <int>, engine <chr>
## 
## ntbt(data = ., fti = left_join, flights2, airportsIB, c(dest = "faa"))
## 
## * print <||> result *
## # A tibble: 336,776 x 14
##     year month   day  hour origin  dest tailnum carrier
##    <int> <int> <int> <dbl>  <chr> <chr>   <chr>   <chr>
## 1   2013     1     1     5    EWR   IAH  N14228      UA
## 2   2013     1     1     5    LGA   IAH  N24211      UA
## 3   2013     1     1     5    JFK   MIA  N619AA      AA
## 4   2013     1     1     5    JFK   BQN  N804JB      B6
## 5   2013     1     1     6    LGA   ATL  N668DN      DL
## 6   2013     1     1     5    EWR   ORD  N39463      UA
## 7   2013     1     1     6    EWR   FLL  N516JB      B6
## 8   2013     1     1     6    LGA   IAD  N829AS      EV
## 9   2013     1     1     6    JFK   MCO  N593JB      B6
## 10  2013     1     1     6    LGA   ORD  N3ALAA      AA
## # ... with 336,766 more rows, and 6 more variables: name <chr>, lat <dbl>,
## #   lon <dbl>, alt <int>, tz <dbl>, dst <chr>
## 
## ntbt(data = ., fti = left_join, flights2, airportsIB, c(origin = "faa"))
## 
## * print <||> result *
## # A tibble: 336,776 x 14
##     year month   day  hour origin  dest tailnum carrier
##    <int> <int> <int> <dbl>  <chr> <chr>   <chr>   <chr>
## 1   2013     1     1     5    EWR   IAH  N14228      UA
## 2   2013     1     1     5    LGA   IAH  N24211      UA
## 3   2013     1     1     5    JFK   MIA  N619AA      AA
## 4   2013     1     1     5    JFK   BQN  N804JB      B6
## 5   2013     1     1     6    LGA   ATL  N668DN      DL
## 6   2013     1     1     5    EWR   ORD  N39463      UA
## 7   2013     1     1     6    EWR   FLL  N516JB      B6
## 8   2013     1     1     6    LGA   IAD  N829AS      EV
## 9   2013     1     1     6    JFK   MCO  N593JB      B6
## 10  2013     1     1     6    LGA   ORD  N3ALAA      AA
## # ... with 336,766 more rows, and 6 more variables: name <chr>, lat <dbl>,
## #   lon <dbl>, alt <int>, tz <dbl>, dst <chr>
```
…
